{
    "page": 1,
    "per_page": 12,
    "photos": [
        {
            "id": 1161547,
            "width": 6000,
            "height": 4000,
            "url": "https://www.pexels.com/photo/green-pineapple-fruit-with-brown-framed-sunglasses-beside-yellow-surface-1161547/",
            "photographer": "Lisa",
            "photographer_url": "https://www.pexels.com/@fotios-photos",
            "photographer_id": 26735,
            "avg_color": "#DFDB2C",
            "src": {
                "original": "https://images.pexels.com/photos/1161547/pexels-photo-1161547.jpeg",
                "large2x": "https://images.pexels.com/photos/1161547/pexels-photo-1161547.jpeg?auto=compress&cs=tinysrgb&dpr=2&h=650&w=940",
                "large": "https://images.pexels.com/photos/1161547/pexels-photo-1161547.jpeg?auto=compress&cs=tinysrgb&h=650&w=940",
                "medium": "https://images.pexels.com/photos/1161547/pexels-photo-1161547.jpeg?auto=compress&cs=tinysrgb&h=350",
                "small": "https://images.pexels.com/photos/1161547/pexels-photo-1161547.jpeg?auto=compress&cs=tinysrgb&h=130",
                "portrait": "https://images.pexels.com/photos/1161547/pexels-photo-1161547.jpeg?auto=compress&cs=tinysrgb&fit=crop&h=1200&w=800",
                "landscape": "https://images.pexels.com/photos/1161547/pexels-photo-1161547.jpeg?auto=compress&cs=tinysrgb&fit=crop&h=627&w=1200",
                "tiny": "https://images.pexels.com/photos/1161547/pexels-photo-1161547.jpeg?auto=compress&cs=tinysrgb&dpr=1&fit=crop&h=200&w=280"
            },
            "liked": false
        },
        {
            "id": 947879,
            "width": 4896,
            "height": 3264,
            "url": "https://www.pexels.com/photo/pineapple-947879/",
            "photographer": "Alizee Marchand",
            "photographer_url": "https://www.pexels.com/@thebstudio",
            "photographer_id": 260031,
            "avg_color": "#43667E",
            "src": {
                "original": "https://images.pexels.com/photos/947879/pexels-photo-947879.jpeg",
                "large2x": "https://images.pexels.com/photos/947879/pexels-photo-947879.jpeg?auto=compress&cs=tinysrgb&dpr=2&h=650&w=940",
                "large": "https://images.pexels.com/photos/947879/pexels-photo-947879.jpeg?auto=compress&cs=tinysrgb&h=650&w=940",
                "medium": "https://images.pexels.com/photos/947879/pexels-photo-947879.jpeg?auto=compress&cs=tinysrgb&h=350",
                "small": "https://images.pexels.com/photos/947879/pexels-photo-947879.jpeg?auto=compress&cs=tinysrgb&h=130",
                "portrait": "https://images.pexels.com/photos/947879/pexels-photo-947879.jpeg?auto=compress&cs=tinysrgb&fit=crop&h=1200&w=800",
                "landscape": "https://images.pexels.com/photos/947879/pexels-photo-947879.jpeg?auto=compress&cs=tinysrgb&fit=crop&h=627&w=1200",
                "tiny": "https://images.pexels.com/photos/947879/pexels-photo-947879.jpeg?auto=compress&cs=tinysrgb&dpr=1&fit=crop&h=200&w=280"
            },
            "liked": false
        },
        {
            "id": 139259,
            "width": 6000,
            "height": 4000,
            "url": "https://www.pexels.com/photo/4-pineapples-photo-139259/",
            "photographer": "Pineapple Supply Co.",
            "photographer_url": "https://www.pexels.com/@psco",
            "photographer_id": 39101,
            "avg_color": "#DDD7D1",
            "src": {
                "original": "https://images.pexels.com/photos/139259/pexels-photo-139259.jpeg",
                "large2x": "https://images.pexels.com/photos/139259/pexels-photo-139259.jpeg?auto=compress&cs=tinysrgb&dpr=2&h=650&w=940",
                "large": "https://images.pexels.com/photos/139259/pexels-photo-139259.jpeg?auto=compress&cs=tinysrgb&h=650&w=940",
                "medium": "https://images.pexels.com/photos/139259/pexels-photo-139259.jpeg?auto=compress&cs=tinysrgb&h=350",
                "small": "https://images.pexels.com/photos/139259/pexels-photo-139259.jpeg?auto=compress&cs=tinysrgb&h=130",
                "portrait": "https://images.pexels.com/photos/139259/pexels-photo-139259.jpeg?auto=compress&cs=tinysrgb&fit=crop&h=1200&w=800",
                "landscape": "https://images.pexels.com/photos/139259/pexels-photo-139259.jpeg?auto=compress&cs=tinysrgb&fit=crop&h=627&w=1200",
                "tiny": "https://images.pexels.com/photos/139259/pexels-photo-139259.jpeg?auto=compress&cs=tinysrgb&dpr=1&fit=crop&h=200&w=280"
            },
            "liked": false
        },
        {
            "id": 1071878,
            "width": 4000,
            "height": 6000,
            "url": "https://www.pexels.com/photo/photo-of-pineapple-wearing-black-aviator-style-sunglasses-and-party-hat-1071878/",
            "photographer": "Pineapple Supply Co.",
            "photographer_url": "https://www.pexels.com/@psco",
            "photographer_id": 39101,
            "avg_color": "#D4D1C2",
            "src": {
                "original": "https://images.pexels.com/photos/1071878/pexels-photo-1071878.jpeg",
                "large2x": "https://images.pexels.com/photos/1071878/pexels-photo-1071878.jpeg?auto=compress&cs=tinysrgb&dpr=2&h=650&w=940",
                "large": "https://images.pexels.com/photos/1071878/pexels-photo-1071878.jpeg?auto=compress&cs=tinysrgb&h=650&w=940",
                "medium": "https://images.pexels.com/photos/1071878/pexels-photo-1071878.jpeg?auto=compress&cs=tinysrgb&h=350",
                "small": "https://images.pexels.com/photos/1071878/pexels-photo-1071878.jpeg?auto=compress&cs=tinysrgb&h=130",
                "portrait": "https://images.pexels.com/photos/1071878/pexels-photo-1071878.jpeg?auto=compress&cs=tinysrgb&fit=crop&h=1200&w=800",
                "landscape": "https://images.pexels.com/photos/1071878/pexels-photo-1071878.jpeg?auto=compress&cs=tinysrgb&fit=crop&h=627&w=1200",
                "tiny": "https://images.pexels.com/photos/1071878/pexels-photo-1071878.jpeg?auto=compress&cs=tinysrgb&dpr=1&fit=crop&h=200&w=280"
            },
            "liked": false
        },
        {
            "id": 4110334,
            "width": 2000,
            "height": 3000,
            "url": "https://www.pexels.com/photo/close-up-photo-of-sliced-pineapple-4110334/",
            "photographer": "Polina Tankilevitch",
            "photographer_url": "https://www.pexels.com/@polina-tankilevitch",
            "photographer_id": 2104565,
            "avg_color": "#D2B870",
            "src": {
                "original": "https://images.pexels.com/photos/4110334/pexels-photo-4110334.jpeg",
                "large2x": "https://images.pexels.com/photos/4110334/pexels-photo-4110334.jpeg?auto=compress&cs=tinysrgb&dpr=2&h=650&w=940",
                "large": "https://images.pexels.com/photos/4110334/pexels-photo-4110334.jpeg?auto=compress&cs=tinysrgb&h=650&w=940",
                "medium": "https://images.pexels.com/photos/4110334/pexels-photo-4110334.jpeg?auto=compress&cs=tinysrgb&h=350",
                "small": "https://images.pexels.com/photos/4110334/pexels-photo-4110334.jpeg?auto=compress&cs=tinysrgb&h=130",
                "portrait": "https://images.pexels.com/photos/4110334/pexels-photo-4110334.jpeg?auto=compress&cs=tinysrgb&fit=crop&h=1200&w=800",
                "landscape": "https://images.pexels.com/photos/4110334/pexels-photo-4110334.jpeg?auto=compress&cs=tinysrgb&fit=crop&h=627&w=1200",
                "tiny": "https://images.pexels.com/photos/4110334/pexels-photo-4110334.jpeg?auto=compress&cs=tinysrgb&dpr=1&fit=crop&h=200&w=280"
            },
            "liked": false
        },
        {
            "id": 189268,
            "width": 4000,
            "height": 6000,
            "url": "https://www.pexels.com/photo/pineapple-on-top-of-white-surface-189268/",
            "photographer": "Pineapple Supply Co.",
            "photographer_url": "https://www.pexels.com/@psco",
            "photographer_id": 39101,
            "avg_color": "#D3CECB",
            "src": {
                "original": "https://images.pexels.com/photos/189268/pexels-photo-189268.jpeg",
                "large2x": "https://images.pexels.com/photos/189268/pexels-photo-189268.jpeg?auto=compress&cs=tinysrgb&dpr=2&h=650&w=940",
                "large": "https://images.pexels.com/photos/189268/pexels-photo-189268.jpeg?auto=compress&cs=tinysrgb&h=650&w=940",
                "medium": "https://images.pexels.com/photos/189268/pexels-photo-189268.jpeg?auto=compress&cs=tinysrgb&h=350",
                "small": "https://images.pexels.com/photos/189268/pexels-photo-189268.jpeg?auto=compress&cs=tinysrgb&h=130",
                "portrait": "https://images.pexels.com/photos/189268/pexels-photo-189268.jpeg?auto=compress&cs=tinysrgb&fit=crop&h=1200&w=800",
                "landscape": "https://images.pexels.com/photos/189268/pexels-photo-189268.jpeg?auto=compress&cs=tinysrgb&fit=crop&h=627&w=1200",
                "tiny": "https://images.pexels.com/photos/189268/pexels-photo-189268.jpeg?auto=compress&cs=tinysrgb&dpr=1&fit=crop&h=200&w=280"
            },
            "liked": false
        },
        {
            "id": 174672,
            "width": 4000,
            "height": 6000,
            "url": "https://www.pexels.com/photo/photography-of-pineapple-174672/",
            "photographer": "Pineapple Supply Co.",
            "photographer_url": "https://www.pexels.com/@psco",
            "photographer_id": 39101,
            "avg_color": "#DAD7D0",
            "src": {
                "original": "https://images.pexels.com/photos/174672/pexels-photo-174672.jpeg",
                "large2x": "https://images.pexels.com/photos/174672/pexels-photo-174672.jpeg?auto=compress&cs=tinysrgb&dpr=2&h=650&w=940",
                "large": "https://images.pexels.com/photos/174672/pexels-photo-174672.jpeg?auto=compress&cs=tinysrgb&h=650&w=940",
                "medium": "https://images.pexels.com/photos/174672/pexels-photo-174672.jpeg?auto=compress&cs=tinysrgb&h=350",
                "small": "https://images.pexels.com/photos/174672/pexels-photo-174672.jpeg?auto=compress&cs=tinysrgb&h=130",
                "portrait": "https://images.pexels.com/photos/174672/pexels-photo-174672.jpeg?auto=compress&cs=tinysrgb&fit=crop&h=1200&w=800",
                "landscape": "https://images.pexels.com/photos/174672/pexels-photo-174672.jpeg?auto=compress&cs=tinysrgb&fit=crop&h=627&w=1200",
                "tiny": "https://images.pexels.com/photos/174672/pexels-photo-174672.jpeg?auto=compress&cs=tinysrgb&dpr=1&fit=crop&h=200&w=280"
            },
            "liked": false
        },
        {
            "id": 915016,
            "width": 5456,
            "height": 3632,
            "url": "https://www.pexels.com/photo/close-up-photography-of-pineapple-915016/",
            "photographer": "Ylanite Koppens",
            "photographer_url": "https://www.pexels.com/@nietjuh",
            "photographer_id": 196863,
            "avg_color": "#DBD9D2",
            "src": {
                "original": "https://images.pexels.com/photos/915016/pexels-photo-915016.jpeg",
                "large2x": "https://images.pexels.com/photos/915016/pexels-photo-915016.jpeg?auto=compress&cs=tinysrgb&dpr=2&h=650&w=940",
                "large": "https://images.pexels.com/photos/915016/pexels-photo-915016.jpeg?auto=compress&cs=tinysrgb&h=650&w=940",
                "medium": "https://images.pexels.com/photos/915016/pexels-photo-915016.jpeg?auto=compress&cs=tinysrgb&h=350",
                "small": "https://images.pexels.com/photos/915016/pexels-photo-915016.jpeg?auto=compress&cs=tinysrgb&h=130",
                "portrait": "https://images.pexels.com/photos/915016/pexels-photo-915016.jpeg?auto=compress&cs=tinysrgb&fit=crop&h=1200&w=800",
                "landscape": "https://images.pexels.com/photos/915016/pexels-photo-915016.jpeg?auto=compress&cs=tinysrgb&fit=crop&h=627&w=1200",
                "tiny": "https://images.pexels.com/photos/915016/pexels-photo-915016.jpeg?auto=compress&cs=tinysrgb&dpr=1&fit=crop&h=200&w=280"
            },
            "liked": false
        },
        {
            "id": 2940256,
            "width": 4158,
            "height": 6236,
            "url": "https://www.pexels.com/photo/person-holding-pineapple-fruit-2940256/",
            "photographer": "Aleksandar Pasaric",
            "photographer_url": "https://www.pexels.com/@apasaric",
            "photographer_id": 105079,
            "avg_color": "#D78483",
            "src": {
                "original": "https://images.pexels.com/photos/2940256/pexels-photo-2940256.jpeg",
                "large2x": "https://images.pexels.com/photos/2940256/pexels-photo-2940256.jpeg?auto=compress&cs=tinysrgb&dpr=2&h=650&w=940",
                "large": "https://images.pexels.com/photos/2940256/pexels-photo-2940256.jpeg?auto=compress&cs=tinysrgb&h=650&w=940",
                "medium": "https://images.pexels.com/photos/2940256/pexels-photo-2940256.jpeg?auto=compress&cs=tinysrgb&h=350",
                "small": "https://images.pexels.com/photos/2940256/pexels-photo-2940256.jpeg?auto=compress&cs=tinysrgb&h=130",
                "portrait": "https://images.pexels.com/photos/2940256/pexels-photo-2940256.jpeg?auto=compress&cs=tinysrgb&fit=crop&h=1200&w=800",
                "landscape": "https://images.pexels.com/photos/2940256/pexels-photo-2940256.jpeg?auto=compress&cs=tinysrgb&fit=crop&h=627&w=1200",
                "tiny": "https://images.pexels.com/photos/2940256/pexels-photo-2940256.jpeg?auto=compress&cs=tinysrgb&dpr=1&fit=crop&h=200&w=280"
            },
            "liked": false
        },
        {
            "id": 139229,
            "width": 5809,
            "height": 3873,
            "url": "https://www.pexels.com/photo/pine-apple-on-beach-139229/",
            "photographer": "Pineapple Supply Co.",
            "photographer_url": "https://www.pexels.com/@psco",
            "photographer_id": 39101,
            "avg_color": "#9CACAB",
            "src": {
                "original": "https://images.pexels.com/photos/139229/pexels-photo-139229.jpeg",
                "large2x": "https://images.pexels.com/photos/139229/pexels-photo-139229.jpeg?auto=compress&cs=tinysrgb&dpr=2&h=650&w=940",
                "large": "https://images.pexels.com/photos/139229/pexels-photo-139229.jpeg?auto=compress&cs=tinysrgb&h=650&w=940",
                "medium": "https://images.pexels.com/photos/139229/pexels-photo-139229.jpeg?auto=compress&cs=tinysrgb&h=350",
                "small": "https://images.pexels.com/photos/139229/pexels-photo-139229.jpeg?auto=compress&cs=tinysrgb&h=130",
                "portrait": "https://images.pexels.com/photos/139229/pexels-photo-139229.jpeg?auto=compress&cs=tinysrgb&fit=crop&h=1200&w=800",
                "landscape": "https://images.pexels.com/photos/139229/pexels-photo-139229.jpeg?auto=compress&cs=tinysrgb&fit=crop&h=627&w=1200",
                "tiny": "https://images.pexels.com/photos/139229/pexels-photo-139229.jpeg?auto=compress&cs=tinysrgb&dpr=1&fit=crop&h=200&w=280"
            },
            "liked": false
        },
        {
            "id": 137119,
            "width": 3897,
            "height": 5846,
            "url": "https://www.pexels.com/photo/pineapple-fruit-on-rock-taken-under-white-clouds-137119/",
            "photographer": "Pineapple Supply Co.",
            "photographer_url": "https://www.pexels.com/@psco",
            "photographer_id": 39101,
            "avg_color": "#A99E7E",
            "src": {
                "original": "https://images.pexels.com/photos/137119/pexels-photo-137119.jpeg",
                "large2x": "https://images.pexels.com/photos/137119/pexels-photo-137119.jpeg?auto=compress&cs=tinysrgb&dpr=2&h=650&w=940",
                "large": "https://images.pexels.com/photos/137119/pexels-photo-137119.jpeg?auto=compress&cs=tinysrgb&h=650&w=940",
                "medium": "https://images.pexels.com/photos/137119/pexels-photo-137119.jpeg?auto=compress&cs=tinysrgb&h=350",
                "small": "https://images.pexels.com/photos/137119/pexels-photo-137119.jpeg?auto=compress&cs=tinysrgb&h=130",
                "portrait": "https://images.pexels.com/photos/137119/pexels-photo-137119.jpeg?auto=compress&cs=tinysrgb&fit=crop&h=1200&w=800",
                "landscape": "https://images.pexels.com/photos/137119/pexels-photo-137119.jpeg?auto=compress&cs=tinysrgb&fit=crop&h=627&w=1200",
                "tiny": "https://images.pexels.com/photos/137119/pexels-photo-137119.jpeg?auto=compress&cs=tinysrgb&dpr=1&fit=crop&h=200&w=280"
            },
            "liked": false
        },
        {
            "id": 1189314,
            "width": 4680,
            "height": 3120,
            "url": "https://www.pexels.com/photo/pineapple-with-sunglasses-1189314/",
            "photographer": "Živa Trajbarič",
            "photographer_url": "https://www.pexels.com/@ziva-trajbaric-467852",
            "photographer_id": 467852,
            "avg_color": "#EEE4DB",
            "src": {
                "original": "https://images.pexels.com/photos/1189314/pexels-photo-1189314.jpeg",
                "large2x": "https://images.pexels.com/photos/1189314/pexels-photo-1189314.jpeg?auto=compress&cs=tinysrgb&dpr=2&h=650&w=940",
                "large": "https://images.pexels.com/photos/1189314/pexels-photo-1189314.jpeg?auto=compress&cs=tinysrgb&h=650&w=940",
                "medium": "https://images.pexels.com/photos/1189314/pexels-photo-1189314.jpeg?auto=compress&cs=tinysrgb&h=350",
                "small": "https://images.pexels.com/photos/1189314/pexels-photo-1189314.jpeg?auto=compress&cs=tinysrgb&h=130",
                "portrait": "https://images.pexels.com/photos/1189314/pexels-photo-1189314.jpeg?auto=compress&cs=tinysrgb&fit=crop&h=1200&w=800",
                "landscape": "https://images.pexels.com/photos/1189314/pexels-photo-1189314.jpeg?auto=compress&cs=tinysrgb&fit=crop&h=627&w=1200",
                "tiny": "https://images.pexels.com/photos/1189314/pexels-photo-1189314.jpeg?auto=compress&cs=tinysrgb&dpr=1&fit=crop&h=200&w=280"
            },
            "liked": false
        }
    ],
    "total_results": 834,
    "next_page": "https://api.pexels.com/v1/search/?page=2&per_page=12&query=pineapple"
}